<?xml version="1.0" standalone="no"?>
<!DOCTYPE svg PUBLIC "-//W3C//DTD SVG 20010904//EN"
 "http://www.w3.org/TR/2001/REC-SVG-20010904/DTD/svg10.dtd">
<svg version="1.0" xmlns="http://www.w3.org/2000/svg"
 width="850.000000pt" height="850.000000pt" viewBox="0 0 850.000000 850.000000"
 preserveAspectRatio="xMidYMid meet">
<metadata>
Created by potrace 1.11, written by Peter Selinger 2001-2013
</metadata>
<g transform="translate(0.000000,850.000000) scale(0.100000,-0.100000)"
fill="#000000" stroke="none">
<path d="M3864 8181 c-110 -51 -217 -178 -257 -306 -38 -119 -39 -160 -43
-1255 -6 -1847 -7 -1888 -31 -1935 -33 -63 -74 -92 -168 -118 -39 -11 -58 -12
-87 -3 -43 12 -101 63 -124 108 -13 25 -38 131 -49 203 -1 11 -8 38 -14 60 -6
22 -13 58 -16 80 -4 22 -10 56 -15 75 -5 19 -11 46 -14 60 -2 14 -9 46 -15 73
-6 26 -14 64 -17 83 -3 20 -7 44 -9 53 -1 9 -10 54 -19 101 -8 47 -18 99 -21
115 -3 17 -8 44 -10 60 -3 17 -7 41 -10 55 -7 32 -11 54 -20 110 -4 25 -9 54
-11 65 -2 11 -8 45 -14 75 -5 30 -12 69 -15 85 -3 17 -8 50 -12 75 -3 25 -8
47 -12 50 -3 3 -7 28 -9 55 -2 28 -7 66 -12 85 -5 19 -16 73 -24 120 -9 47
-17 94 -20 105 -2 11 -12 61 -21 110 -27 142 -33 171 -40 198 -10 37 -49 121
-62 135 -7 7 -13 17 -13 21 0 12 -98 110 -104 103 -3 -3 -6 -1 -6 5 0 14 -90
61 -147 77 -72 20 -142 24 -203 11 -19 -4 -40 -8 -46 -9 -6 -1 -41 -17 -78
-35 -127 -62 -217 -185 -249 -337 -16 -73 -19 -312 -5 -320 5 -3 6 -9 3 -14
-3 -4 0 -32 6 -61 6 -30 12 -70 15 -89 2 -19 7 -46 10 -60 12 -49 15 -66 19
-104 2 -21 7 -47 11 -58 3 -11 7 -30 9 -41 1 -12 8 -49 13 -82 6 -33 14 -73
17 -90 3 -16 9 -57 15 -90 6 -33 12 -73 15 -90 3 -16 8 -41 10 -55 7 -48 15
-95 21 -123 3 -16 7 -38 9 -50 2 -12 6 -33 8 -47 3 -14 11 -59 17 -100 12 -79
16 -102 23 -135 6 -26 19 -104 23 -130 1 -11 3 -20 4 -20 1 0 3 -13 5 -30 2
-16 6 -46 10 -65 13 -80 28 -169 31 -195 1 -11 3 -20 4 -20 2 0 6 -23 16 -85
4 -25 8 -55 10 -67 2 -13 6 -33 8 -45 6 -43 18 -113 23 -133 2 -11 6 -36 8
-55 3 -19 7 -46 10 -60 4 -14 8 -65 10 -115 4 -101 -3 -118 -64 -150 -40 -20
-87 -14 -119 15 -47 44 -100 143 -400 745 -172 346 -328 653 -345 680 -34 53
-110 135 -126 135 -5 0 -11 4 -13 8 -1 4 -25 19 -53 32 -72 34 -195 36 -276 5
-168 -66 -244 -184 -234 -360 4 -75 29 -179 47 -202 6 -7 8 -13 5 -13 -4 0 1
-19 9 -42 9 -24 17 -47 18 -53 13 -51 20 -71 25 -80 3 -5 6 -14 7 -20 1 -5 23
-73 49 -150 26 -77 47 -146 48 -152 0 -7 3 -13 7 -13 4 0 7 -6 7 -12 0 -7 18
-67 41 -133 112 -328 193 -562 199 -575 3 -8 7 -22 9 -30 2 -8 7 -23 13 -35 5
-11 22 -54 36 -95 70 -197 97 -272 126 -350 17 -47 35 -96 39 -110 5 -14 18
-50 30 -80 12 -30 22 -59 24 -65 2 -11 52 -146 66 -180 19 -45 42 -111 45
-126 2 -9 13 -36 24 -60 12 -23 21 -49 21 -56 0 -7 4 -21 9 -31 6 -9 21 -48
35 -87 14 -38 31 -83 37 -100 7 -16 13 -32 14 -35 1 -8 45 -123 54 -145 5 -11
18 -45 29 -75 40 -107 84 -225 92 -245 4 -11 31 -81 60 -155 83 -217 188 -413
307 -573 25 -34 50 -61 55 -59 5 1 7 -1 4 -6 -3 -4 6 -21 20 -38 89 -104 113
-131 148 -163 22 -20 53 -50 70 -66 45 -44 190 -161 239 -193 23 -15 44 -29
47 -32 23 -24 244 -144 344 -187 158 -68 389 -135 506 -148 14 -2 43 -6 65 -9
22 -4 74 -11 115 -17 44 -7 137 -9 225 -6 142 5 181 8 265 21 19 3 53 8 75 11
22 3 74 12 115 21 101 21 105 22 105 24 0 1 11 4 25 6 14 2 63 16 110 31 47
14 90 28 95 29 19 6 100 36 130 48 17 8 75 32 130 56 181 76 490 247 647 357
26 18 52 33 58 33 5 0 10 5 10 10 0 6 8 14 18 17 9 4 22 11 27 15 30 25 187
138 191 138 3 0 15 11 28 25 13 14 28 25 34 25 5 0 12 7 16 15 3 8 10 15 16
15 5 0 23 11 38 24 50 45 70 62 97 82 14 10 48 39 74 64 26 25 69 63 96 85
150 125 409 376 677 656 197 206 223 234 293 314 33 37 71 80 85 95 28 30 136
152 190 213 19 22 42 47 50 56 9 9 38 44 65 76 28 33 59 69 70 81 11 11 38 42
60 68 22 27 45 54 51 60 27 28 111 167 119 199 2 4 4 10 5 15 1 4 2 10 1 15 0
4 4 7 10 7 5 0 7 5 4 10 -4 6 -2 16 4 23 22 27 35 220 19 297 -26 123 -53 173
-143 266 -76 77 -141 116 -235 142 -8 2 -51 5 -95 6 -84 3 -171 -16 -236 -50
-20 -11 -52 -28 -72 -38 -21 -11 -37 -23 -37 -28 0 -4 -6 -8 -14 -8 -8 0 -127
-111 -264 -247 -221 -220 -406 -397 -468 -450 -12 -10 -43 -36 -70 -58 -26
-22 -52 -45 -58 -51 -16 -15 -60 -39 -68 -36 -5 1 -8 -2 -8 -7 0 -10 -64 -24
-120 -26 -58 -2 -196 55 -208 87 -2 4 -9 5 -14 2 -6 -4 -8 -2 -5 3 4 6 -3 19
-14 29 -23 20 -76 120 -91 169 -5 17 -11 48 -14 70 -3 22 -7 51 -11 65 -7 32
-7 113 1 165 7 52 17 122 21 160 2 17 7 41 10 55 3 14 8 45 11 70 3 25 8 54
10 65 11 59 16 83 20 110 2 17 6 44 8 60 3 17 7 48 11 69 7 48 14 93 20 126
10 51 16 96 20 134 3 21 7 46 9 55 3 9 8 36 12 61 3 25 7 54 9 65 2 11 13 76
25 145 28 166 29 175 36 213 3 17 7 46 9 62 2 17 6 40 9 51 7 34 17 96 21 131
3 28 16 102 30 173 7 35 17 100 20 135 2 17 5 30 6 30 1 0 3 9 4 20 2 11 5 34
9 50 3 17 8 46 11 65 3 19 11 62 17 95 6 33 12 74 13 90 3 31 9 61 19 105 3
14 8 41 11 60 2 19 6 44 8 55 3 11 8 40 12 65 10 68 14 92 20 120 2 13 7 42
11 65 3 22 10 63 15 90 26 135 30 217 12 282 -7 26 -15 56 -18 66 -8 34 -59
118 -94 156 -161 172 -383 212 -576 104 -48 -27 -152 -126 -160 -155 -4 -10
-11 -18 -16 -18 -5 0 -8 -3 -7 -7 1 -5 -5 -24 -14 -45 -15 -34 -30 -96 -43
-178 -3 -19 -8 -42 -11 -51 -2 -9 -7 -36 -9 -60 -3 -24 -10 -69 -16 -99 -7
-30 -13 -68 -14 -85 -2 -16 -6 -37 -9 -46 -4 -9 -6 -20 -5 -25 1 -5 0 -11 -1
-14 -1 -3 -3 -16 -5 -30 -1 -14 -8 -54 -15 -90 -7 -36 -14 -76 -15 -90 -2 -14
-8 -50 -14 -80 -6 -30 -13 -71 -16 -90 -3 -19 -10 -60 -15 -90 -5 -30 -12 -72
-16 -94 -3 -21 -8 -48 -10 -60 -2 -11 -7 -37 -10 -56 -3 -19 -7 -42 -9 -50 -2
-8 -7 -33 -10 -55 -3 -23 -7 -50 -9 -60 -2 -11 -7 -40 -11 -65 -4 -25 -9 -54
-11 -65 -2 -11 -7 -33 -9 -50 -13 -71 -46 -262 -50 -285 -3 -14 -12 -61 -20
-105 -37 -209 -63 -272 -122 -300 -50 -24 -80 -25 -156 -3 -90 24 -178 69
-222 113 -30 30 -35 43 -36 83 0 26 0 691 -1 1478 0 1104 -3 1451 -13 1515
-13 85 -39 176 -56 194 -5 5 -9 15 -9 22 0 25 -170 201 -170 176 0 -4 -4 -3
-8 4 -4 6 -29 21 -56 32 -39 17 -68 21 -159 21 -101 -1 -118 -4 -173 -29z"/>
</g>
</svg>
